[gd_scene load_steps=3 format=2]

[ext_resource path="res://Assets/Original/Tiles-Background.png" type="Texture" id=1]

[sub_resource type="TileSet" id=1]
0/name = "Tiles-Background.png 0"
0/texture = ExtResource( 1 )
0/tex_offset = Vector2( 0, 0 )
0/modulate = Color( 1, 1, 1, 1 )
0/region = Rect2( 0, 0, 32, 32 )
0/tile_mode = 0
0/occluder_offset = Vector2( 0, 0 )
0/navigation_offset = Vector2( 0, 0 )
0/shape_offset = Vector2( 0, 0 )
0/shape_transform = Transform2D( 1, 0, 0, 1, 0, 0 )
0/shape_one_way = false
0/shape_one_way_margin = 0.0
0/shapes = [  ]
0/z_index = 0
1/name = "Tiles-Background.png 1"
1/texture = ExtResource( 1 )
1/tex_offset = Vector2( 0, 0 )
1/modulate = Color( 1, 1, 1, 1 )
1/region = Rect2( 96, 0, 32, 32 )
1/tile_mode = 0
1/occluder_offset = Vector2( 0, 0 )
1/navigation_offset = Vector2( 0, 0 )
1/shape_offset = Vector2( 0, 0 )
1/shape_transform = Transform2D( 1, 0, 0, 1, 0, 0 )
1/shape_one_way = false
1/shape_one_way_margin = 0.0
1/shapes = [  ]
1/z_index = 0
2/name = "Tiles-Background.png 2"
2/texture = ExtResource( 1 )
2/tex_offset = Vector2( 0, 0 )
2/modulate = Color( 1, 1, 1, 1 )
2/region = Rect2( 32, 32, 32, 32 )
2/tile_mode = 0
2/occluder_offset = Vector2( 0, 0 )
2/navigation_offset = Vector2( 0, 0 )
2/shape_offset = Vector2( 0, 0 )
2/shape_transform = Transform2D( 1, 0, 0, 1, 0, 0 )
2/shape_one_way = false
2/shape_one_way_margin = 0.0
2/shapes = [  ]
2/z_index = 0
3/name = "Tiles-Background.png 3"
3/texture = ExtResource( 1 )
3/tex_offset = Vector2( 0, 0 )
3/modulate = Color( 1, 1, 1, 1 )
3/region = Rect2( 64, 32, 32, 32 )
3/tile_mode = 0
3/occluder_offset = Vector2( 0, 0 )
3/navigation_offset = Vector2( 0, 0 )
3/shape_offset = Vector2( 0, 0 )
3/shape_transform = Transform2D( 1, 0, 0, 1, 0, 0 )
3/shape_one_way = false
3/shape_one_way_margin = 0.0
3/shapes = [  ]
3/z_index = 0

[node name="BackgroundGreen" type="TileMap"]
position = Vector2( 0, 16 )
z_index = -1
tile_set = SubResource( 1 )
cell_size = Vector2( 8, 8 )
cell_quadrant_size = 8
collision_layer = 8
collision_mask = 8
format = 1
tile_data = PoolIntArray( 1, 0, 0, 5, 0, 0, 9, 0, 0, 13, 0, 0, 17, 0, 0, 21, 0, 0, 262145, 0, 0, 262149, 0, 0, 262153, 0, 0, 262157, 0, 0, 262161, 0, 0, 262165, 0, 0, 524289, 0, 0, 524293, 0, 0, 524297, 0, 0, 524301, 0, 0, 524305, 0, 0, 524309, 0, 0, 786433, 0, 0, 786437, 0, 0, 786441, 0, 0, 786445, 0, 0, 786449, 0, 0, 786453, 0, 0, 1048577, 0, 0, 1048581, 0, 0, 1048585, 0, 0, 1048589, 0, 0, 1048593, 0, 0, 1048597, 0, 0, 1310721, 0, 0, 1310725, 0, 0, 1310729, 0, 0, 1310733, 0, 0, 1310737, 0, 0, 1310741, 0, 0, 1572865, 0, 0, 1572869, 0, 0, 1572873, 0, 0, 1572877, 0, 0, 1572881, 0, 0, 1572885, 0, 0, 1769473, 0, 0, 1769477, 0, 0, 1769481, 0, 0, 1769485, 0, 0, 1769489, 0, 0, 1769493, 0, 0 )
